[
    {
        "Id": 1,
        "Description": "Coca-Cola",
        "Price": 2.50,
        "Quantity": 10
    },
    {
        "Id": 2,
        "Description": "Water (still)",
        "Price": 1.50,
        "Quantity": 10
    },
    {
        "Id": 3,
        "Description": "Water (sparkling)",
        "Price": 1.75,
        "Quantity": 10
    },
    {
        "Id": 4,
        "Description": "Ham sandwish",
        "Price": 3.80,
        "Quantity": 5
    }
]